"CZAS";"SO2 Dwutlenek siarki poz. dop.: 350 [µg/m3]";"NO2 Dwutlenek azotu poz. dop.: 200 [µg/m3]";"NOx Tlenki azotu  [µg/m3]";"NO Tlenek azotu  [µg/m3]";"PM10 Pył zawieszony PM10  [µg/m3]"
"1:00";"3,5";"7";"8";"0";"17"
"2:00";"2,9";"6";"6";"0";"15"
"3:00";"2,2";"5";"6";"0";"14"
"4:00";"2,5";"5";"6";"0";"16"
"5:00";"2,7";"7";"7";"0";"10"
"6:00";"3,1";"10";"11";"1";"16"
"7:00";"3,6";"11";"12";"1";"14"
"8:00";"3,2";"12";"14";"1";"14"
"9:00";"3,0";"11";"15";"2";"15"
"10:00";"2,9";"8";"12";"2";"13"
"11:00";"2,5";"9";"12";"2";"16"
"12:00";"5,0";"16";"25";"6";"24"
"13:00";"18,6";"36";"72";"23";"28"
"14:00";"10,8";"30";"43";"8";"34"
"15:00";"10,8";"30";"42";"8";"22"
"16:00";"4,5";"28";"33";"4";"24"
"17:00";"3,6";"33";"39";"4";"29"
"18:00";"4,3";"37";"44";"5";"38"
"19:00";"3,6";"28";"32";"2";"35"
"20:00";"3,2";"15";"16";"1";"28"
"21:00";"2,8";"14";"15";"1";"29"
"22:00";"2,4";"10";"11";"1";"16"
"23:00";"2,2";"9";"10";"1";"11"
"24:00";"2,1";"8";"9";"0";"9"
"wartość średnia";"4,4 (poz. dop.: 125 µg/m3)";"16";"21";"3";"20 (poz. dop.: 50 µg/m3)"
"minimum";"2,1";"5";"6";"0";"9"
"maksimum";"18,6";"37";"72";"23";"38"