"CZAS";"SO2 Dwutlenek siarki poz. dop.: 350 [µg/m3]";"NO2 Dwutlenek azotu poz. dop.: 200 [µg/m3]";"NOx Tlenki azotu  [µg/m3]";"NO Tlenek azotu  [µg/m3]";"PM10 Pył zawieszony PM10  [µg/m3]"
"1:00";"4,1";"26";"28";"2";"22"
"2:00";"3,6";"19";"21";"1";"27"
"3:00";"4,3";"19";"21";"1";"26"
"4:00";"4,4";"22";"24";"1";"24"
"5:00";"4,7";"39";"59";"13";"33"
"6:00";"4,5";"45";"70";"16";"25"
"7:00";"5,3";"41";"55";"9";"28"
"8:00";"6,3";"40";"68";"18";"31"
"9:00";"6,2";"23";"31";"5";"31"
"10:00";"3,7";"10";"13";"2";"17"
"11:00";"3,3";"7";"9";"2";"28"
"12:00";"2,9";"6";"8";"1";"20"
"13:00";"3,8";"6";"8";"1";"21"
"14:00";"13,3";"11";"14";"2";"22"
"15:00";"22,5";"16";"19";"2";"24"
"16:00";"67,9";"28";"32";"3";"30"
"17:00";"41,8";"51";"55";"3";"37"
"18:00";"15,1";"73";"100";"18";"43"
"19:00";"8,6";"73";"185";"73";"58"
"20:00";"6,0";"62";"299";"155";"91"
"21:00";"6,0";"55";"251";"128";"76"
"22:00";"6,4";"48";"234";"121";"86"
"23:00";"4,6";"35";"202";"108";"91"
"24:00";"4,3";"31";"159";"83";"75"
"wartość średnia";"10,6 (poz. dop.: 125 µg/m3)";"33";"82";"32";"40 (poz. dop.: 50 µg/m3)"
"minimum";"2,9";"6";"8";"1";"17"
"maksimum";"67,9";"73";"299";"155";"91"